inpatients
…
## See spec(...) for full column specifications.

From data.cms.gov: The Inpatient Utilization and Payment Public Use File (Inpatient PUF) provides information on inpatient discharges for Medicare fee-for-service beneficiaries. The Inpatient PUF includes information on utilization, payment (total payment and Medicare payment), and hospital-specific charges for the more than 3,000 U.S. hospitals that receive Medicare Inpatient Prospective Payment System (IPPS) payments. The PUF is organized by hospital and Medicare Severity Diagnosis Related Group (MS-DRG) and covers Fiscal Year (FY) 2017. MS-DRGs included in the PUF represent more than 7 million discharges or 75 percent of total Medicare IPPS discharges.

inpatients <- inpatients %>%
  mutate(state = as.factor(state),
         drg = as.factor(str_extract(drg_definition, "\\d{3}")),
         drg_definition = as.factor(str_remove(drg_definition, "\\d{3} - ")),
         average_outofpocket = average_total_payments - average_medicare_payments,
         city = as.factor(city))

inpatients %>%
  distinct(name)

## # A tibble: 3,077 x 1
##    name                            
##    <chr>                           
##  1 Southeast Alabama Medical Center
##  2 Marshall Medical Center South   
##  3 Eliza Coffee Memorial Hospital  
##  4 Mizell Memorial Hospital        
##  5 Crenshaw Community Hospital     
##  6 St Vincent's East               
##  7 Dekalb Regional Medical Center  
##  8 Shelby Baptist Medical Center   
##  9 Helen Keller Memorial Hospital  
## 10 Dale Medical Center             
## #  with 3,067 more rows
…
cities_loc <- medi_filt %>%
  select(city.x, state.x, long, lat)

cities <- left_join(cities, cities_loc, by = "city.x") %>%
  mutate(mean = round(mean, 2))

inpatients %>%
  group_by(drg_definition) %>%
  summarize(mean = mean(average_outofpocket)) %>%
  arrange(desc(mean))

## # A tibble: 563 x 2
##    drg_definition                                                        mean
##    <fct>                                                                <dbl>
##  1 Simultaneous Pancreas/Kidney Transplant                             35594.
##  2 Heart Transplant Or Implant Of Heart Assist System W Mcc            31741.
##  3 Liver Transplant W Mcc Or Intestinal Transplant                     28727.
##  4 Lung Transplant                                                     26213.
##  5 Allogeneic Bone Marrow Transplant                                   22189.
##  6 Liver Transplant W/O Mcc                                            19497.
##  7 Interstitial Lung Disease W/O Cc/Mcc                                17716.
##  8 Dental & Oral Diseases W Mcc                                        16886.
##  9 Ecmo Or Trach W Mv >96 Hrs Or Pdx Exc Face, Mouth & Neck W Maj O.r. 14077.
## 10 Intracranial Vascular Procedures W Pdx Hemorrhage W Mcc             13764.
## #  with 553 more rows

inpatients %>%
  group_by(state) %>%
  summarize(mean = mean(average_outofpocket)) %>%
  arrange(desc(mean))

## # A tibble: 51 x 2
##    state  mean
##    <fct> <dbl>
##  1 DC    4969.
##  2 HI    4196.
##  3 DE    2889.
##  4 UT    2841.
##  5 PA    2825.
##  6 WA    2749.
##  7 VA    2678.
##  8 AK    2655.
##  9 CT    2562.
## 10 NY    2537.
## #  with 41 more rows

inpatients %>%
  group_by(city) %>%
  summarize(mean = mean(average_outofpocket)) %>%
  arrange(desc(mean))

## # A tibble: 1,905 x 2
##    city                  mean
##    <fct>                <dbl>
##  1 Santa Clara         16238.
##  2 San Rafael          12419.
##  3 South San Francisco 12281.
##  4 Woodland Hills      10343.
##  5 Addison              9672.
##  6 Vacaville            7682.
##  7 Harbor City          7553.
##  8 Baldwin Park         7531.
##  9 Maywood              5898.
## 10 Honolulu             5840.
## #  with 1,895 more rows
…
cities %>%
  filter(state.x != "HI", lat < 25)

## # A tibble: 24 x 5
##    city.x       mean state.x   long   lat
##    <fct>       <dbl> <fct>    <dbl> <dbl>
##  1 San Rafael 12419. CA      -158.   21.4
##  2 San Rafael 12419. CA      -158.   21.4
##  3 San Rafael 12419. CA      -158.   21.4
##  4 Key West    1626. FL       -81.7  24.6
##  5 Key West    1626. FL       -81.7  24.6
##  6 Key West    1626. FL       -81.7  24.6
##  7 Key West    1626. FL       -81.7  24.6
##  8 Key West    1626. FL       -81.7  24.6
##  9 Key West    1626. FL       -81.7  24.6
## 10 Key West    1626. FL       -81.7  24.6
## #  with 14 more rows
